szlo statistics - A basic tutorial on plotting mixed effects using tidymodels
…
Now that we have created our model. Lets take a look at the predicted probabilities. To do this, we will create a data frame with all the different combinations of our fixed and random effects.

expanded_df_tidy <- with(sleepstudy,
                    data.frame(
                      expand.grid(Subject=levels(Subject),
                                  #cat = unique(cat),
                                  Days=seq(min(Days),max(Days),length=51))))

expanded_df_tidy <- sleepstudy %>% tidyr::expand(Subject,Days,cat)

expanded_df_tidy

# A tibble: 540 × 3
   Subject  Days cat  
   <fct>   <dbl> <chr>
 1 308         0 A    
 2 308         0 B    
 3 308         0 C    
 4 308         1 A    
 5 308         1 B    
 6 308         1 C    
 7 308         2 A    
 8 308         2 B    
 9 308         2 C    
10 308         3 A    
# … with 530 more rows

We can use this data frame and the predict() to get the predictions from our model.

predicted_df_tidy <- mutate(expanded_df_tidy,
                            pred = predict(mixed_model_fit_tidy,
                                           new_data=expanded_df_tidy, 
                                           type = "raw", opts=list(re.form=NA)))

predicted_df_tidy

# A tibble: 540 × 4
   Subject  Days cat    pred
   <fct>   <dbl> <chr> <dbl>
 1 308         0 A      249.
 2 308         0 B      252.
 3 308         0 C      260.
 4 308         1 A      259.
 5 308         1 B      263.
 6 308         1 C      271.
 7 308         2 A      270.
 8 308         2 B      273.
 9 308         2 C      281.
10 308         3 A      280.
# … with 530 more rows
…
#update predictions
predicted_df_tidy <- mutate(expanded_df_tidy,
                            # get random predictions
                            pred_rand = predict(mixed_model_fit_tidy,
                                                new_data=expanded_df_tidy, 
                                                type = "raw", opts=list(re.form=NULL)),
                            # get fixed effect predictions
                            pred_fixed = predict(mixed_model_fit_tidy,
                                                new_data=expanded_df_tidy, 
                                                type = "raw", opts=list(re.form=NA)))

predicted_df_tidy

# A tibble: 540 × 5
   Subject  Days cat   pred_rand pred_fixed
   <fct>   <dbl> <chr>     <dbl>      <dbl>
 1 308         0 A          292.       249.
 2 308         0 B          296.       252.
 3 308         0 C          304.       260.
 4 308         1 A          303.       259.
 5 308         1 B          306.       263.
 6 308         1 C          314.       271.
 7 308         2 A          313.       270.
 8 308         2 B          317.       273.
 9 308         2 C          325.       281.
10 308         3 A          324.       280.
# … with 530 more rows
…
